N 	 time,s 
20 	 0.000000 
21 	 0.000000 
22 	 0.000000 
23 	 0.010000 
24 	 0.000000 
25 	 0.010000 
26 	 0.020000 
27 	 0.031000 
28 	 0.031000 
29 	 0.060000 
30 	 0.090000 
31 	 0.150000 
32 	 0.250000 
33 	 0.402000 
34 	 0.648000 
35 	 1.055000 
36 	 1.692000 
37 	 2.747000 
38 	 4.429000 
39 	 7.072000 
40 	 11.442000 
